{"name":"getUsersFail","id":"SerenityInitialTest:getUsersFail","testCaseName":"SerenityInitialTest","testSteps":[{"number":1,"description":"Karen the trainer executes a GET on the resource /users?page\u003d2","duration":4007,"startTime":"2019-11-10T12:19:14.776-05:00[America/Bogota]","result":"SUCCESS","precondition":false,"children":[{"number":2,"description":"GET http://localhost:5000/api/users?page\u003d2\r\r","duration":1,"startTime":"2019-11-10T12:19:18.778-05:00[America/Bogota]","result":"SUCCESS","restQuery":{"method":"GET","path":"http://localhost:5000/api/users?page\u003d2\r\r","content":"\r","contentType":"null","requestHeaders":"Accept\u003d*/*\r\r","requestCookies":"\r\r","responseHeaders":"X-Powered-By: Express\nAccess-Control-Allow-Origin: *\nContent-Type: application/json; charset\u003dutf-8\nContent-Length: 540\nETag: W/\"21c-V3l8h04l5/8zLV+i3u8GJo8G3Y8\"\nDate: Sun, 10 Nov 2019 17:19:18 GMT\nConnection: keep-alive\r","responseCookies":"\r","responseBody":"{\n    \"page\": 2,\n    \"per_page\": 3,\n    \"total\": 12,\n    \"total_pages\": 4,\n    \"data\": [\n        {\n            \"id\": 4,\n            \"email\": \"eve.holt@reqres.in\",\n            \"first_name\": \"Eve\",\n            \"last_name\": \"Holt\",\n            \"avatar\": \"https://s3.amazonaws.com/uifaces/faces/twitter/marcoramires/128.jpg\"\n        },\n        {\n            \"id\": 5,\n            \"email\": \"charles.morris@reqres.in\",\n            \"first_name\": \"Charles\",\n            \"last_name\": \"Morris\",\n            \"avatar\": \"https://s3.amazonaws.com/uifaces/faces/twitter/stephenmoon/128.jpg\"\n        },\n        {\n            \"id\": 6,\n            \"email\": \"tracey.ramos@reqres.in\",\n            \"first_name\": \"Tracey\",\n            \"last_name\": \"Ramos\",\n            \"avatar\": \"https://s3.amazonaws.com/uifaces/faces/twitter/bigmancho/128.jpg\"\n        }\n    ]\n}","statusCode":200},"precondition":false}]}],"userStory":{"id":"SerenityInitialTest","storyName":"Serenity initial test","storyClassName":"SerenityInitialTest","path":"","type":"story"},"featureTag":{"name":"Serenity initial test","type":"story"},"title":"Get users fail","tags":[{"name":"Serenity initial test","type":"story"}],"startTime":"2019-11-10T12:19:14.495-05:00[America/Bogota]","duration":4406,"testFailureCause":{"errorType":"org.junit.ComparisonFailure","message":"expected:\u003c[4]00\u003e but was:\u003c[2]00\u003e","stackTrace":[{"declaringClass":"SerenityInitialTest","methodName":"getUsersFail","fileName":"SerenityInitialTest.java","lineNumber":46}]},"testFailureClassname":"org.junit.ComparisonFailure","testFailureMessage":"expected:\u003c[4]00\u003e but was:\u003c[2]00\u003e","testFailureSummary":"FAILURE;org.junit.ComparisonFailure;expected:\u003c[4]00\u003e but was:\u003c[2]00\u003e;SerenityInitialTest.java","projectKey":"","annotatedResult":"FAILURE","manual":false,"testSource":"JUnit","actors":[{"name":"Karen the trainer","can":["call an API at http://localhost:5000/api"]}],"result":"FAILURE"}